PEC3 - COVID-19 Outbreak prediction - 4 AEMET data
…
Load and deserialize json files.

meteo_data <- map_dfr(
      .x = meteo_files, 
      .f = ~fromJSON(.x, flatten = TRUE)
) %>% as_tibble()
meteo_data

# A tibble: 4,105 × 20
   fecha    indicativo nombre provincia altitud tmed  prec  tmin  horatmin tmax 
   <chr>    <chr>      <chr>  <chr>     <chr>   <chr> <chr> <chr> <chr>    <chr>
 1 2020-01… 1212E      ASTUR… ASTURIAS  127     7,4   0,0   3,8   19:42    11,0 
 2 2020-01… 1212E      ASTUR… ASTURIAS  127     7,3   0,0   3,2   05:14    11,4 
 3 2020-01… 1212E      ASTUR… ASTURIAS  127     10,7  0,7   7,4   22:57    14,0 
 4 2020-01… 1212E      ASTUR… ASTURIAS  127     8,4   2,4   5,6   18:32    11,1 
 5 2020-01… 1212E      ASTUR… ASTURIAS  127     8,2   0,0   4,7   03:39    11,8 
 6 2020-01… 1212E      ASTUR… ASTURIAS  127     7,6   0,0   2,8   01:53    12,3 
 7 2020-01… 1212E      ASTUR… ASTURIAS  127     8,8   0,0   4,3   07:38    13,3 
 8 2020-01… 1212E      ASTUR… ASTURIAS  127     13,4  0,0   9,0   Varias   17,7 
 9 2020-01… 1212E      ASTUR… ASTURIAS  127     14,4  5,5   8,7   22:53    20,2 
10 2020-01… 1212E      ASTUR… ASTURIAS  127     8,2   0,6   4,9   23:46    11,6 
# … with 4,095 more rows, and 10 more variables: horatmax <chr>, dir <chr>,
#   velmedia <chr>, racha <chr>, horaracha <chr>, sol <chr>, presMax <chr>,
#   horaPresMax <chr>, presMin <chr>, horaPresMin <chr>
…
Warning in mask$eval_all_mutate(quo): NAs introducidos por coerción

meteo_data

# A tibble: 4,105 × 10
   fecha      provincia  tmed  prec  tmin  tmax    wd    ws ws_max   sol
   <date>     <chr>     <dbl> <dbl> <dbl> <dbl> <dbl> <dbl>  <dbl> <dbl>
 1 2020-01-01 ASTURIAS    7.4   0     3.8  11      99   2.5    7.8   7.9
 2 2020-01-02 ASTURIAS    7.3   0     3.2  11.4    22   2.8   10.3   2.8
 3 2020-01-03 ASTURIAS   10.7   0.7   7.4  14      99   2.8    9.7   1.9
 4 2020-01-04 ASTURIAS    8.4   2.4   5.6  11.1    99   3.6    7.2   0.7
 5 2020-01-05 ASTURIAS    8.2   0     4.7  11.8    13   2.5    7.2   8.6
 6 2020-01-06 ASTURIAS    7.6   0     2.8  12.3    22   3.1    8.9   6.3
 7 2020-01-07 ASTURIAS    8.8   0     4.3  13.3    99   1.9    8.9   8  
 8 2020-01-08 ASTURIAS   13.4   0     9    17.7    22   2.8    8.3   6.1
 9 2020-01-09 ASTURIAS   14.4   5.5   8.7  20.2    29   7.8   24.2   4.3
10 2020-01-10 ASTURIAS    8.2   0.6   4.9  11.6    28   2.2   16.1   1.9
# … with 4,095 more rows
…
The final data looks like:

meteo_data_completed

# A tibble: 4,105 × 10
   fecha      provincia  tmed  prec  tmin  tmax    wd    ws ws_max   sol
   <date>     <chr>     <dbl> <dbl> <dbl> <dbl> <dbl> <dbl>  <dbl> <dbl>
 1 2020-01-01 Asturias    7.4   0     3.8  11      99   2.5    7.8   7.9
 2 2020-01-02 Asturias    7.3   0     3.2  11.4    22   2.8   10.3   2.8
 3 2020-01-03 Asturias   10.7   0.7   7.4  14      99   2.8    9.7   1.9
 4 2020-01-04 Asturias    8.4   2.4   5.6  11.1    99   3.6    7.2   0.7
 5 2020-01-05 Asturias    8.2   0     4.7  11.8    13   2.5    7.2   8.6
 6 2020-01-06 Asturias    7.6   0     2.8  12.3    22   3.1    8.9   6.3
 7 2020-01-07 Asturias    8.8   0     4.3  13.3    99   1.9    8.9   8  
 8 2020-01-08 Asturias   13.4   0     9    17.7    22   2.8    8.3   6.1
 9 2020-01-09 Asturias   14.4   5.5   8.7  20.2    29   7.8   24.2   4.3
10 2020-01-10 Asturias    8.2   0.6   4.9  11.6    28   2.2   16.1   1.9
# … with 4,095 more rows
