PEC3 - COVID-19 Outbreak prediction - 1 CNE data
…
1.3 Combination

We proceed to combine both datasets.

Before combine it is neccesary to group the demographic data from the hospitalisation dataframe.

cne_hosp_data_grouped <-  cne_hosp_data %>% 
      group_by(provincia_iso, fecha) %>% 
      summarise_at(vars(num_casos, num_hosp, num_uci, num_def), sum)

cne_data <- inner_join(cne_tecnica, cne_hosp_data_grouped, by=c("provincia_iso", "fecha"))
cne_data

# A tibble: 42,588 × 12
   provincia_iso fecha      num_casos.x num_casos_prueba_pcr num_casos_prueba_t…
   <chr>         <date>           <dbl>                <dbl>               <dbl>
 1 A             2020-01-01           0                    0                   0
 2 AB            2020-01-01           0                    0                   0
 3 AL            2020-01-01           0                    0                   0
 4 AV            2020-01-01           0                    0                   0
 5 B             2020-01-01           0                    0                   0
 6 BA            2020-01-01           0                    0                   0
 7 BI            2020-01-01           0                    0                   0
 8 BU            2020-01-01           0                    0                   0
 9 C             2020-01-01           0                    0                   0
10 CA            2020-01-01           0                    0                   0
# … with 42,578 more rows, and 7 more variables: num_casos_prueba_ag <dbl>,
#   num_casos_prueba_elisa <dbl>, num_casos_prueba_desconocida <dbl>,
#   num_casos.y <dbl>, num_hosp <dbl>, num_uci <dbl>, num_def <dbl>
