PEC3 - COVID-19 Outbreak prediction - Task 2: Datasets combination
…
pacman::p_load(
      here,      # file locator
      tidyverse, # data management and ggplot2 graphics
      skimr,     # get overview of data
      janitor    # produce and adorn tabulations and cross-tabulations
)

CNE + AEMET

Import clean datasets:

cne_clean_data <- readRDS(here("data", "clean", "cne_data.rds"))
cne_clean_data

# A tibble: 42,588 × 11
   provincia_iso fecha      num_casos num_casos_prueba_pcr num_casos_prueba_tes…
   <chr>         <date>         <dbl>                <dbl>                 <dbl>
 1 A             2020-01-01         0                    0                     0
 2 AB            2020-01-01         0                    0                     0
 3 AL            2020-01-01         0                    0                     0
 4 AV            2020-01-01         0                    0                     0
 5 B             2020-01-01         0                    0                     0
 6 BA            2020-01-01         0                    0                     0
 7 BI            2020-01-01         0                    0                     0
 8 BU            2020-01-01         0                    0                     0
 9 C             2020-01-01         0                    0                     0
10 CA            2020-01-01         0                    0                     0
# … with 42,578 more rows, and 6 more variables: num_casos_prueba_ag <dbl>,
#   num_casos_prueba_elisa <dbl>, num_casos_prueba_desconocida <dbl>,
#   num_hosp <dbl>, num_uci <dbl>, num_def <dbl>

aemet_clean_data <- readRDS(here("data", "clean", "aemet_data.rds"))
aemet_clean_data

# A tibble: 4,105 × 10
   fecha      provincia  tmed  prec  tmin  tmax    wd    ws ws_max   sol
   <date>     <chr>     <dbl> <dbl> <dbl> <dbl> <dbl> <dbl>  <dbl> <dbl>
 1 2020-01-01 Asturias    7.4   0     3.8  11      99   2.5    7.8   7.9
 2 2020-01-02 Asturias    7.3   0     3.2  11.4    22   2.8   10.3   2.8
 3 2020-01-03 Asturias   10.7   0.7   7.4  14      99   2.8    9.7   1.9
 4 2020-01-04 Asturias    8.4   2.4   5.6  11.1    99   3.6    7.2   0.7
 5 2020-01-05 Asturias    8.2   0     4.7  11.8    13   2.5    7.2   8.6
 6 2020-01-06 Asturias    7.6   0     2.8  12.3    22   3.1    8.9   6.3
 7 2020-01-07 Asturias    8.8   0     4.3  13.3    99   1.9    8.9   8  
 8 2020-01-08 Asturias   13.4   0     9    17.7    22   2.8    8.3   6.1
 9 2020-01-09 Asturias   14.4   5.5   8.7  20.2    29   7.8   24.2   4.3
10 2020-01-10 Asturias    8.2   0.6   4.9  11.6    28   2.2   16.1   1.9
# … with 4,095 more rows
…
      filter(provincia_iso %in% c("O", "B", "M", "MA", "SE")) %>% 
      mutate(
            provincia_iso = case_when(
                  provincia_iso == "O" ~ "Asturias",
                  provincia_iso == "B" ~ "Barcelona",
                  provincia_iso == "M" ~ "Madrid",
                  provincia_iso == "MA" ~ "Málaga",
                  provincia_iso == "SE" ~ "Sevilla",
                  TRUE ~ provincia_iso
            )
      ) %>% 
      rename(provincia = provincia_iso)
cne_clean_data

# A tibble: 4,095 × 11
   provincia fecha      num_casos num_casos_prueba_pcr num_casos_prueba_test_ac
   <chr>     <date>         <dbl>                <dbl>                    <dbl>
 1 Barcelona 2020-01-01         0                    0                        0
 2 Madrid    2020-01-01         1                    1                        0
 3 Málaga    2020-01-01         0                    0                        0
 4 Asturias  2020-01-01         0                    0                        0
 5 Sevilla   2020-01-01         0                    0                        0
 6 Barcelona 2020-01-02         0                    0                        0
 7 Madrid    2020-01-02         0                    0                        0
 8 Málaga    2020-01-02         0                    0                        0
 9 Asturias  2020-01-02         0                    0                        0
10 Sevilla   2020-01-02         0                    0                        0
# … with 4,085 more rows, and 6 more variables: num_casos_prueba_ag <dbl>,
#   num_casos_prueba_elisa <dbl>, num_casos_prueba_desconocida <dbl>,
#   num_hosp <dbl>, num_uci <dbl>, num_def <dbl>

covid_data <- left_join(cne_clean_data, aemet_clean_data, by=c("fecha", "provincia"))
covid_data

# A tibble: 4,095 × 19
   provincia fecha      num_casos num_casos_prueba_pcr num_casos_prueba_test_ac
   <chr>     <date>         <dbl>                <dbl>                    <dbl>
 1 Barcelona 2020-01-01         0                    0                        0
 2 Madrid    2020-01-01         1                    1                        0
 3 Málaga    2020-01-01         0                    0                        0
 4 Asturias  2020-01-01         0                    0                        0
 5 Sevilla   2020-01-01         0                    0                        0
 6 Barcelona 2020-01-02         0                    0                        0
 7 Madrid    2020-01-02         0                    0                        0
 8 Málaga    2020-01-02         0                    0                        0
 9 Asturias  2020-01-02         0                    0                        0
10 Sevilla   2020-01-02         0                    0                        0
# … with 4,085 more rows, and 14 more variables: num_casos_prueba_ag <dbl>,
#   num_casos_prueba_elisa <dbl>, num_casos_prueba_desconocida <dbl>,
#   num_hosp <dbl>, num_uci <dbl>, num_def <dbl>, tmed <dbl>, prec <dbl>,
#   tmin <dbl>, tmax <dbl>, wd <dbl>, ws <dbl>, ws_max <dbl>, sol <dbl>
…
CNE/AEMET + GOOGLE

Load clean data:

google_data <- readRDS(here("data", "clean", "google_data.rds"))

Rename provinces to match previous dataset:

google_data <- google_data %>% 
      filter(province %in% c("Asturias", "Barcelona", "Madrid", "Málaga", "Seville")) %>% 
      mutate(province = ifelse(province == "Seville", "Sevilla", province)) %>% 
      select(-CA, -iso_3166_2_code, provincia = province)
google_data

# A tibble: 4,025 × 8
# Groups:   provincia [5]
   provincia fecha      mob_grocery_pharmacy mob_parks mob_residential
   <chr>     <date>                    <dbl>     <dbl>           <dbl>
 1 Asturias  2020-02-15                   -1        20              -1
 2 Asturias  2020-02-16                    1        11              -2
 3 Asturias  2020-02-17                    0       -13              -1
 4 Asturias  2020-02-18                    1        11              -1
 5 Asturias  2020-02-19                    1        29              -2
 6 Asturias  2020-02-20                    0        32              -3
 7 Asturias  2020-02-21                   -1        18               0
 8 Asturias  2020-02-22                    1        29              -1
 9 Asturias  2020-02-23                    6        23              -3
10 Asturias  2020-02-24                    5        48              -1
# … with 4,015 more rows, and 3 more variables: mob_retail_recreation <dbl>,
#   mob_transit_stations <dbl>, mob_workplaces <dbl>
…
Since everything is right, we will combine the data with the already combined dataset from CNE and AEMET:

covid_data <- left_join(covid_data, google_data, by=c("fecha", "provincia"))
covid_data

# A tibble: 4,095 × 25
   provincia fecha      num_casos num_casos_prueba_pcr num_casos_prueba_test_ac
   <chr>     <date>         <dbl>                <dbl>                    <dbl>
 1 Barcelona 2020-01-01         0                    0                        0
 2 Madrid    2020-01-01         1                    1                        0
 3 Málaga    2020-01-01         0                    0                        0
 4 Asturias  2020-01-01         0                    0                        0
 5 Sevilla   2020-01-01         0                    0                        0
 6 Barcelona 2020-01-02         0                    0                        0
 7 Madrid    2020-01-02         0                    0                        0
 8 Málaga    2020-01-02         0                    0                        0
 9 Asturias  2020-01-02         0                    0                        0
10 Sevilla   2020-01-02         0                    0                        0
# … with 4,085 more rows, and 20 more variables: num_casos_prueba_ag <dbl>,
#   num_casos_prueba_elisa <dbl>, num_casos_prueba_desconocida <dbl>,
#   num_hosp <dbl>, num_uci <dbl>, num_def <dbl>, tmed <dbl>, prec <dbl>,
#   tmin <dbl>, tmax <dbl>, wd <dbl>, ws <dbl>, ws_max <dbl>, sol <dbl>,
#   mob_grocery_pharmacy <dbl>, mob_parks <dbl>, mob_residential <dbl>,
#   mob_retail_recreation <dbl>, mob_transit_stations <dbl>,
#   mob_workplaces <dbl>
…
Load clean INE data:

ine_data <- readRDS(here("data", "clean", "ine_data.rds"))

Rename provinces to match previous datasets:

ine_data <- ine_data %>% 
      filter(province %in% c("Asturias", "Barcelona", "Madrid", "Málaga", "Sevilla")) %>% 
      rename(
            provincia = province,
            mob_flujo = flujo
      )
ine_data

# A tibble: 3,270 × 3
   fecha      provincia mob_flujo
   <date>     <chr>         <dbl>
 1 2020-03-16 Málaga         11.4
 2 2020-03-16 Sevilla        12.3
 3 2020-03-16 Asturias       13.1
 4 2020-03-16 Barcelona      14.6
 5 2020-03-16 Madrid         13.9
 6 2020-03-17 Málaga         10.7
 7 2020-03-17 Sevilla        11.5
 8 2020-03-17 Asturias       12.5
 9 2020-03-17 Barcelona      14.0
10 2020-03-17 Madrid         13.4
# … with 3,260 more rows

Combination with previous datasets:

covid_data <- left_join(covid_data, ine_data, by=c("fecha", "provincia"))
covid_data

# A tibble: 4,095 × 26
   provincia fecha      num_casos num_casos_prueba_pcr num_casos_prueba_test_ac
   <chr>     <date>         <dbl>                <dbl>                    <dbl>
 1 Barcelona 2020-01-01         0                    0                        0
 2 Madrid    2020-01-01         1                    1                        0
 3 Málaga    2020-01-01         0                    0                        0
 4 Asturias  2020-01-01         0                    0                        0
 5 Sevilla   2020-01-01         0                    0                        0
 6 Barcelona 2020-01-02         0                    0                        0
 7 Madrid    2020-01-02         0                    0                        0
 8 Málaga    2020-01-02         0                    0                        0
 9 Asturias  2020-01-02         0                    0                        0
10 Sevilla   2020-01-02         0                    0                        0
# … with 4,085 more rows, and 21 more variables: num_casos_prueba_ag <dbl>,
#   num_casos_prueba_elisa <dbl>, num_casos_prueba_desconocida <dbl>,
#   num_hosp <dbl>, num_uci <dbl>, num_def <dbl>, tmed <dbl>, prec <dbl>,
#   tmin <dbl>, tmax <dbl>, wd <dbl>, ws <dbl>, ws_max <dbl>, sol <dbl>,
#   mob_grocery_pharmacy <dbl>, mob_parks <dbl>, mob_residential <dbl>,
#   mob_retail_recreation <dbl>, mob_transit_stations <dbl>,
#   mob_workplaces <dbl>, mob_flujo <dbl>
…
Aditional dataset

In addition, we have the clean dataset corresponding to hospitalizations which provide detail by demographics.

We will not combine it with the previous dataset, but we will treat it additionally in case of needing more detail.

cne_hosp_data <- readRDS(here("data", "clean", "cne_hosp_data.rds"))
cne_hosp_data

# A tibble: 1,277,640 × 8
   provincia_iso sexo  grupo_edad fecha      num_casos num_hosp num_uci num_def
   <chr>         <chr> <chr>      <date>         <dbl>    <dbl>   <dbl>   <dbl>
 1 A             H     0-9        2020-01-01         0        0       0       0
 2 A             H     10-19      2020-01-01         0        0       0       0
 3 A             H     20-29      2020-01-01         0        0       0       0
 4 A             H     30-39      2020-01-01         0        0       0       0
 5 A             H     40-49      2020-01-01         0        0       0       0
 6 A             H     50-59      2020-01-01         0        0       0       0
 7 A             H     60-69      2020-01-01         0        0       0       0
 8 A             H     70-79      2020-01-01         0        0       0       0
 9 A             H     80+        2020-01-01         0        0       0       0
10 A             H     NC         2020-01-01         0        0       0       0
# … with 1,277,630 more rows
…
      filter(provincia_iso %in% c("O", "B", "M", "MA", "SE")) %>% 
      mutate(
            provincia_iso = case_when(
                  provincia_iso == "O" ~ "Asturias",
                  provincia_iso == "B" ~ "Barcelona",
                  provincia_iso == "M" ~ "Madrid",
                  provincia_iso == "MA" ~ "Málaga",
                  provincia_iso == "SE" ~ "Sevilla",
                  TRUE ~ provincia_iso
            )
      ) %>% 
      rename(provincia = provincia_iso)
cne_hosp_data

# A tibble: 122,850 × 8
   provincia sexo  grupo_edad fecha      num_casos num_hosp num_uci num_def
   <chr>     <chr> <chr>      <date>         <dbl>    <dbl>   <dbl>   <dbl>
 1 Barcelona H     0-9        2020-01-01         0        0       0       0
 2 Barcelona H     10-19      2020-01-01         0        0       0       0
 3 Barcelona H     20-29      2020-01-01         0        0       0       0
 4 Barcelona H     30-39      2020-01-01         0        0       0       0
 5 Barcelona H     40-49      2020-01-01         0        0       0       0
 6 Barcelona H     50-59      2020-01-01         0        0       0       0
 7 Barcelona H     60-69      2020-01-01         0        0       0       0
 8 Barcelona H     70-79      2020-01-01         0        0       0       0
 9 Barcelona H     80+        2020-01-01         0        0       0       0
10 Barcelona H     NC         2020-01-01         0        0       0       0
# … with 122,840 more rows
…
