PEC3 - COVID-19 Outbreak prediction - GOOGLE data
…
# List local google raw files
google_files <- list.files(
      path = here("data", "raw"),
      recursive = TRUE,
      full.names = TRUE,
      pattern = "*Region_Mobility_Report.csv"
)

google_data <- map_dfr(
      .x = google_files, 
      .f = ~read_csv(.x, show_col_types = FALSE)
)
google_data

# A tibble: 50,702 × 15
   country_region_code country_region sub_region_1 sub_region_2 metro_area
   <chr>               <chr>          <chr>        <chr>        <lgl>     
 1 ES                  Spain          <NA>         <NA>         NA        
 2 ES                  Spain          <NA>         <NA>         NA        
 3 ES                  Spain          <NA>         <NA>         NA        
 4 ES                  Spain          <NA>         <NA>         NA        
 5 ES                  Spain          <NA>         <NA>         NA        
 6 ES                  Spain          <NA>         <NA>         NA        
 7 ES                  Spain          <NA>         <NA>         NA        
 8 ES                  Spain          <NA>         <NA>         NA        
 9 ES                  Spain          <NA>         <NA>         NA        
10 ES                  Spain          <NA>         <NA>         NA        
# … with 50,692 more rows, and 10 more variables: iso_3166_2_code <chr>,
#   census_fips_code <lgl>, place_id <chr>, date <date>,
#   retail_and_recreation_percent_change_from_baseline <dbl>,
#   grocery_and_pharmacy_percent_change_from_baseline <dbl>,
#   parks_percent_change_from_baseline <dbl>,
#   transit_stations_percent_change_from_baseline <dbl>,
#   workplaces_percent_change_from_baseline <dbl>, …
…
      select(-country_region, -country_region_code, -metro_area, -census_fips_code, -place_id) %>% 
      rename(
            "CA"                = sub_region_1,
            "province"          = sub_region_2,
            "fecha"             = date,
            "retail_recreation" = retail_and_recreation_percent_change_from_baseline,
            "grocery_pharmacy"  = grocery_and_pharmacy_percent_change_from_baseline,
            "parks"             = parks_percent_change_from_baseline,
            "transit_stations"  = transit_stations_percent_change_from_baseline,
            "workplaces"        = workplaces_percent_change_from_baseline,
            "residential"       = residential_percent_change_from_baseline
      )
google_data

# A tibble: 41,847 × 10
   CA      province iso_3166_2_code fecha      retail_recreati… grocery_pharmacy
   <chr>   <chr>    <chr>           <date>                <dbl>            <dbl>
 1 Andalu… Almería  ES-AL           2020-02-15                5               -3
 2 Andalu… Almería  ES-AL           2020-02-16               -2                0
 3 Andalu… Almería  ES-AL           2020-02-17                0               -2
 4 Andalu… Almería  ES-AL           2020-02-18               -3               -3
 5 Andalu… Almería  ES-AL           2020-02-19               -1               -3
 6 Andalu… Almería  ES-AL           2020-02-20                1               -2
 7 Andalu… Almería  ES-AL           2020-02-21                2               -1
 8 Andalu… Almería  ES-AL           2020-02-22                4               -1
 9 Andalu… Almería  ES-AL           2020-02-23                1                4
10 Andalu… Almería  ES-AL           2020-02-24                1                0
# … with 41,837 more rows, and 4 more variables: parks <dbl>,
#   transit_stations <dbl>, workplaces <dbl>, residential <dbl>
…
Once imputed missing data, we can combine the data again

google_TimeS_imputed <- grocery_pharmacy_data %>% 
      inner_join(grocery_parks_data, by=c("CA", "province", "iso_3166_2_code", "fecha")) %>% 
      inner_join(grocery_residential_data, by=c("CA", "province", "iso_3166_2_code", "fecha")) %>% 
      inner_join(grocery_retail_recreation_data, by=c("CA", "province", "iso_3166_2_code", "fecha")) %>% 
      inner_join(grocery_transit_stations_data, by=c("CA", "province", "iso_3166_2_code", "fecha")) %>% 
      inner_join(grocery_workplaces_data, by=c("CA", "province", "iso_3166_2_code", "fecha"))
google_TimeS_imputed

# A tibble: 41,847 × 10
# Groups:   province [52]
   CA      province iso_3166_2_code fecha      mob_grocery_pharmacy mob_parks
   <chr>   <chr>    <chr>           <date>                    <dbl>     <dbl>
 1 Galicia A Coruña ES-C            2020-02-15                   -2       -15
 2 Galicia A Coruña ES-C            2020-02-16                  -19       -27
 3 Galicia A Coruña ES-C            2020-02-17                    4        28
 4 Galicia A Coruña ES-C            2020-02-18                    0        21
 5 Galicia A Coruña ES-C            2020-02-19                    0        22
 6 Galicia A Coruña ES-C            2020-02-20                    3        17
 7 Galicia A Coruña ES-C            2020-02-21                   -1        27
 8 Galicia A Coruña ES-C            2020-02-22                   -4        32
 9 Galicia A Coruña ES-C            2020-02-23                   10        29
10 Galicia A Coruña ES-C            2020-02-24                   13        71
# … with 41,837 more rows, and 4 more variables: mob_residential <dbl>,
#   mob_retail_recreation <dbl>, mob_transit_stations <dbl>,
#   mob_workplaces <dbl>
…
google_gaps <- google_TimeS_imputed %>% 
      pivot_longer(cols = 5:10, names_to = "variables") %>% 
      as_tsibble(index = fecha, key = c(variables, province)) %>% 
      count_gaps(.full = TRUE)
google_gaps

# A tibble: 42 × 5
   variables            province .from      .to           .n
   <chr>                <chr>    <date>     <date>     <int>
 1 mob_grocery_pharmacy Ceuta    2020-08-22 2020-08-23     2
 2 mob_grocery_pharmacy Ceuta    2020-08-29 2020-08-30     2
 3 mob_grocery_pharmacy Ceuta    2020-09-02 2020-09-02     1
 4 mob_grocery_pharmacy Ceuta    2020-09-05 2020-09-06     2
 5 mob_grocery_pharmacy Melilla  2020-08-22 2020-08-23     2
 6 mob_grocery_pharmacy Melilla  2020-08-29 2020-08-30     2
 7 mob_grocery_pharmacy Melilla  2020-09-05 2020-09-06     2
 8 mob_parks            Ceuta    2020-08-22 2020-08-23     2
 9 mob_parks            Ceuta    2020-08-29 2020-08-30     2
10 mob_parks            Ceuta    2020-09-02 2020-09-02     1
# … with 32 more rows

Since in further analysis we will not use “Ceuta” or “Melilla” data, we chose to eliminate them rather than to impute the missing values.

google_TimeS_imputed <- google_TimeS_imputed %>% 
      filter(!province %in% c("Ceuta", "Melilla"))
google_TimeS_imputed

# A tibble: 40,250 × 10
# Groups:   province [50]
   CA      province iso_3166_2_code fecha      mob_grocery_pharmacy mob_parks
   <chr>   <chr>    <chr>           <date>                    <dbl>     <dbl>
 1 Galicia A Coruña ES-C            2020-02-15                   -2       -15
 2 Galicia A Coruña ES-C            2020-02-16                  -19       -27
 3 Galicia A Coruña ES-C            2020-02-17                    4        28
 4 Galicia A Coruña ES-C            2020-02-18                    0        21
 5 Galicia A Coruña ES-C            2020-02-19                    0        22
 6 Galicia A Coruña ES-C            2020-02-20                    3        17
 7 Galicia A Coruña ES-C            2020-02-21                   -1        27
 8 Galicia A Coruña ES-C            2020-02-22                   -4        32
 9 Galicia A Coruña ES-C            2020-02-23                   10        29
10 Galicia A Coruña ES-C            2020-02-24                   13        71
# … with 40,240 more rows, and 4 more variables: mob_residential <dbl>,
#   mob_retail_recreation <dbl>, mob_transit_stations <dbl>,
#   mob_workplaces <dbl>
…
