PEC3 - COVID-19 Outbreak prediction - 3 INE data
…
Downloading process

The technical project carried out for INE study is available in the following link.

ine_data <- read_csv2(
      file = here("data", "raw", "ine_48252_estudio_movilidad.csv"),
      show_col_types = FALSE
)

ℹ Using "','" as decimal and "'.'" as grouping mark. Use `read_delim()` for more control.

ine_data

# A tibble: 20,667 × 7
   `Total Nacional` `Comunidades y Ciu…` Provincias Islas `Tipo de dato` Periodo
   <chr>            <chr>                <chr>      <chr> <chr>          <chr>  
 1 Total Nacional   <NA>                 <NA>       <NA>  Porcentaje de… 29/12/…
 2 Total Nacional   <NA>                 <NA>       <NA>  Porcentaje de… 26/12/…
 3 Total Nacional   <NA>                 <NA>       <NA>  Porcentaje de… 22/12/…
 4 Total Nacional   <NA>                 <NA>       <NA>  Porcentaje de… 19/12/…
 5 Total Nacional   <NA>                 <NA>       <NA>  Porcentaje de… 15/12/…
 6 Total Nacional   <NA>                 <NA>       <NA>  Porcentaje de… 12/12/…
 7 Total Nacional   <NA>                 <NA>       <NA>  Porcentaje de… 8/12/2…
 8 Total Nacional   <NA>                 <NA>       <NA>  Porcentaje de… 1/12/2…
 9 Total Nacional   <NA>                 <NA>       <NA>  Porcentaje de… 28/11/…
10 Total Nacional   <NA>                 <NA>       <NA>  Porcentaje de… 24/11/…
# … with 20,657 more rows, and 1 more variable: Total <dbl>

It is needed to rename the colulmn’s name in order to facilitate the work.

ine_data <- ine_data %>% 
      select(
            CA = 'Comunidades y Ciudades Autónomas',
            province = Provincias,
            islas = Islas,
            fecha = Periodo,
            flujo = Total
      )
ine_data

# A tibble: 20,667 × 5
   CA    province islas fecha      flujo
   <chr> <chr>    <chr> <chr>      <dbl>
 1 <NA>  <NA>     <NA>  29/12/2021  15.9
 2 <NA>  <NA>     <NA>  26/12/2021  10.2
 3 <NA>  <NA>     <NA>  22/12/2021  18.6
 4 <NA>  <NA>     <NA>  19/12/2021  12.6
 5 <NA>  <NA>     <NA>  15/12/2021  21.0
 6 <NA>  <NA>     <NA>  12/12/2021  12.9
 7 <NA>  <NA>     <NA>  8/12/2021   12.3
 8 <NA>  <NA>     <NA>  1/12/2021   21.4
 9 <NA>  <NA>     <NA>  28/11/2021  12.3
10 <NA>  <NA>     <NA>  24/11/2021  20.7
# … with 20,657 more rows
…
ine_data <- ine_data %>% 
      filter(is.na(islas)) %>% 
      select(-islas, -CA)

Regarding completeness of the dataset, there are not daily information. The gap between days vary between one day (no gaps during lockdown) and up to four days.

To complete the data, we are going to interpolate the data between the known values.

In order to do that, we are going to transform data in a wider format (as a matrix).

ine_data <- ine_data %>% 
      pivot_wider(names_from = province, values_from = flujo)
ine_data

# A tibble: 249 × 53
   fecha      Almería Cádiz Córdoba Granada Huelva  Jaén Málaga Sevilla Huesca
   <date>       <dbl> <dbl>   <dbl>   <dbl>  <dbl> <dbl>  <dbl>   <dbl>  <dbl>
 1 2021-12-29   15.9   16.4   15.0     17.6  13.6  13.1    17.4    17.6  12.6 
 2 2021-12-26    9.89  10.9    9.54    11.4   8.36  8.16   11.0    10.6   8.54
 3 2021-12-22   17.4   17.1   15.4     18.4  14.1  13.0    18.8    19.3  13.3 
 4 2021-12-19   11.5   13.0   12.1     14.5  10.5  11.7    13.1    13.9   9.91
 5 2021-12-15   18.4   19.3   18.4     20.4  16.7  16      21.0    22.9  14.3 
 6 2021-12-12   11.6   13.5   12.4     14.3  10.7  11.5    13.6    13.5  10.2 
 7 2021-12-08   12.3   13.7   12.2     13.8  11.4  10.2    14.0    13.5  11.9 
 8 2021-12-01   18.3   19.2   18.4     20.1  16.6  15.5    21.3    22.7  14.3 
 9 2021-11-28   11.8   12.5   11.7     13.9  10.3   9.89   13.7    13.2   9.11
10 2021-11-24   18.2   18.6   17.9     19.6  16.5  13.3    21.1    22.6  12.9 
# … with 239 more rows, and 43 more variables: Teruel <dbl>, Zaragoza <dbl>,
#   Asturias <dbl>, `Balears, Illes` <dbl>, `Palmas, Las` <dbl>,
#   `Santa Cruz de Tenerife` <dbl>, Cantabria <dbl>, Ávila <dbl>, Burgos <dbl>,
#   León <dbl>, Palencia <dbl>, Salamanca <dbl>, Segovia <dbl>, Soria <dbl>,
#   Valladolid <dbl>, Zamora <dbl>, Albacete <dbl>, `Ciudad Real` <dbl>,
#   Cuenca <dbl>, Guadalajara <dbl>, Toledo <dbl>, Barcelona <dbl>,
#   Girona <dbl>, Lleida <dbl>, Tarragona <dbl>, `Alicante/Alacant` <dbl>, …
…
Missing data interpolation:

# Aplicamos interpolacion
ine_data <- na_interpolation(ine_data)
ine_data

# A tsibble: 654 x 53 [1D]
   fecha      Almería Cádiz Córdoba Granada Huelva  Jaén Málaga Sevilla Huesca
   <date>       <dbl> <dbl>   <dbl>   <dbl>  <dbl> <dbl>  <dbl>   <dbl>  <dbl>
 1 2020-03-16   11.0  10.7    11.9    11.4   11.4   8.81  11.4    12.3   10.3 
 2 2020-03-17    9.14 10.1    11.4     9.78  10.9   7.65  10.7    11.5   10.2 
 3 2020-03-18    7.28  9.5    10.9     8.16  10.5   6.49  10.1    10.8   10.1 
 4 2020-03-19    7.08  9.28   10.7     8.06  10.2   6.30   9.80   10.6   10.0 
 5 2020-03-20    6.87  9.05   10.4     7.97  10.0   6.12   9.53   10.3    9.98
 6 2020-03-21    5.53  7.24    8.06    7.08   7.77  5.35   7.09    7.89   7.11
 7 2020-03-22    4.19  5.42    5.7     6.2    5.51  4.57   4.65    5.44   4.24
 8 2020-03-23    6.59  7.74    8.24    8.20   8.30  6.25   7.02    8.48   7.04
 9 2020-03-24    8.98 10.1    10.8    10.2   11.1   7.93   9.39   11.5    9.85
10 2020-03-25    9.11 10.2    10.8    10.0   11.0   8.02   9.47   11.5    9.72
# … with 644 more rows, and 43 more variables: Teruel <dbl>, Zaragoza <dbl>,
#   Asturias <dbl>, `Balears, Illes` <dbl>, `Palmas, Las` <dbl>,
#   `Santa Cruz de Tenerife` <dbl>, Cantabria <dbl>, Ávila <dbl>, Burgos <dbl>,
#   León <dbl>, Palencia <dbl>, Salamanca <dbl>, Segovia <dbl>, Soria <dbl>,
#   Valladolid <dbl>, Zamora <dbl>, Albacete <dbl>, `Ciudad Real` <dbl>,
#   Cuenca <dbl>, Guadalajara <dbl>, Toledo <dbl>, Barcelona <dbl>,
#   Girona <dbl>, Lleida <dbl>, Tarragona <dbl>, `Alicante/Alacant` <dbl>, …
…
Finally, we transform the data to a longer format so we will be able to easily join the data with other sources.

ine_data <- ine_data %>% 
      pivot_longer(!fecha, names_to = "province", values_to = "flujo")
ine_data

# A tsibble: 34,008 x 3 [1D]
# Key:       province [52]
   fecha      province flujo
   <date>     <chr>    <dbl>
 1 2020-03-16 Almería  11.0 
 2 2020-03-16 Cádiz    10.7 
 3 2020-03-16 Córdoba  11.9 
 4 2020-03-16 Granada  11.4 
 5 2020-03-16 Huelva   11.4 
 6 2020-03-16 Jaén      8.81
 7 2020-03-16 Málaga   11.4 
 8 2020-03-16 Sevilla  12.3 
 9 2020-03-16 Huesca   10.3 
10 2020-03-16 Teruel    6.77
# … with 33,998 more rows
