PEC3 - COVID-19 Outbreak prediction - Multivariate (INE mobility + temp) prediction
…
In the second case scenario, all the available data (limited by mobility information 29 dec 2021)

Before sixth epidemiological period

Asturias

data_asturias <- covid_data %>% 
      filter(provincia == "Asturias") %>% 
      filter(fecha > as.Date("2020-06-14", format = "%Y-%m-%d")) %>% 
      select(provincia, fecha, num_casos, tmed, mob_flujo) %>% 
      drop_na() %>% 
      as_tsibble(key = provincia, index = fecha)
data_asturias

# A tsibble: 563 x 5 [1D]
# Key:       provincia [1]
   provincia fecha      num_casos  tmed mob_flujo
   <chr>     <date>         <dbl> <dbl>     <dbl>
 1 Asturias  2020-06-15         0  16        19.4
 2 Asturias  2020-06-16         1  15.6      19.5
 3 Asturias  2020-06-17         0  15.6      19.7
 4 Asturias  2020-06-18         0  15.1      20.5
 5 Asturias  2020-06-19         0  14.8      21.0
 6 Asturias  2020-06-20         0  16.8      19.8
 7 Asturias  2020-06-21         0  18.2      20.2
 8 Asturias  2020-06-22         0  18.2      20.6
 9 Asturias  2020-06-23         0  20        21.1
10 Asturias  2020-06-24         0  18.2      21.5
# … with 553 more rows
…
Barcelona

data_Barcelona <- covid_data %>% 
      filter(provincia == "Barcelona") %>% 
      filter(fecha > as.Date("2020-06-14", format = "%Y-%m-%d")) %>% 
      select(provincia, fecha, num_casos, tmed, mob_flujo) %>% 
      drop_na() %>% 
      as_tsibble(key = provincia, index = fecha)
data_Barcelona

# A tsibble: 563 x 5 [1D]
# Key:       provincia [1]
   provincia fecha      num_casos  tmed mob_flujo
   <chr>     <date>         <dbl> <dbl>     <dbl>
 1 Barcelona 2020-06-15        62  21.2      22.0
 2 Barcelona 2020-06-16        66  20.8      22.6
 3 Barcelona 2020-06-17        70  20.3      23.2
 4 Barcelona 2020-06-18        68  18.8      23.2
 5 Barcelona 2020-06-19        65  20.4      23.9
 6 Barcelona 2020-06-20        53  21.8      21.5
 7 Barcelona 2020-06-21        38  22.8      20.5
 8 Barcelona 2020-06-22        69  23.8      19.5
 9 Barcelona 2020-06-23        95  23.4      18.5
10 Barcelona 2020-06-24        44  23.6      17.5
# … with 553 more rows
…
Madrid

data_Madrid <- covid_data %>% 
      filter(provincia == "Madrid") %>% 
      filter(fecha > as.Date("2020-06-14", format = "%Y-%m-%d")) %>% 
      select(provincia, fecha, num_casos, tmed, mob_flujo) %>% 
      drop_na() %>% 
      as_tsibble(key = provincia, index = fecha)
data_Madrid

# A tsibble: 563 x 5 [1D]
# Key:       provincia [1]
   provincia fecha      num_casos  tmed mob_flujo
   <chr>     <date>         <dbl> <dbl>     <dbl>
 1 Madrid    2020-06-15       153  20.7      20.6
 2 Madrid    2020-06-16        91  21        21.6
 3 Madrid    2020-06-17        93  20.2      21.8
 4 Madrid    2020-06-18        85  21.9      22.1
 5 Madrid    2020-06-19        78  22.6      22.0
 6 Madrid    2020-06-20        67  23.4      18.8
 7 Madrid    2020-06-21        42  25        19.9
 8 Madrid    2020-06-22        60  27.3      21.0
 9 Madrid    2020-06-23        68  28.4      22.1
10 Madrid    2020-06-24        49  28        23.1
# … with 553 more rows
…
Malaga

data_Malaga <- covid_data %>% 
      filter(provincia == "Málaga") %>% 
      filter(fecha > as.Date("2020-06-14", format = "%Y-%m-%d")) %>% 
      select(provincia, fecha, num_casos, tmed, mob_flujo) %>% 
      drop_na() %>% 
      as_tsibble(key = provincia, index = fecha)
data_Malaga

# A tsibble: 563 x 5 [1D]
# Key:       provincia [1]
   provincia fecha      num_casos  tmed mob_flujo
   <chr>     <date>         <dbl> <dbl>     <dbl>
 1 Málaga    2020-06-15         1  27.2      18.9
 2 Málaga    2020-06-16         1  27.8      19.8
 3 Málaga    2020-06-17         2  26.9      19.9
 4 Málaga    2020-06-18         2  21.6      20.0
 5 Málaga    2020-06-19         1  24.7      20.1
 6 Málaga    2020-06-20         4  22.6      18.1
 7 Málaga    2020-06-21         4  22.7      18.8
 8 Málaga    2020-06-22         6  25        19.5
 9 Málaga    2020-06-23         8  25.6      20.2
10 Málaga    2020-06-24        65  24.5      21.0
# … with 553 more rows
…
Sevilla

data_Sevilla <- covid_data %>% 
      filter(provincia == "Sevilla") %>% 
      filter(fecha > as.Date("2020-06-14", format = "%Y-%m-%d")) %>% 
      select(provincia, fecha, num_casos, tmed, mob_flujo) %>% 
      drop_na() %>% 
      as_tsibble(key = provincia, index = fecha)
data_Sevilla

# A tsibble: 563 x 5 [1D]
# Key:       provincia [1]
   provincia fecha      num_casos  tmed mob_flujo
   <chr>     <date>         <dbl> <dbl>     <dbl>
 1 Sevilla   2020-06-15         2  23.1      19.9
 2 Sevilla   2020-06-16         1  24.0      20.8
 3 Sevilla   2020-06-17         0  24.9      21.1
 4 Sevilla   2020-06-18         0  25.8      21.3
 5 Sevilla   2020-06-19         0  26.6      21.2
 6 Sevilla   2020-06-20         0  27.5      18.0
 7 Sevilla   2020-06-21         0  28.4      18.9
 8 Sevilla   2020-06-22         1  29.3      19.8
 9 Sevilla   2020-06-23         0  30.2      20.7
10 Sevilla   2020-06-24         1  29.4      21.6
# … with 553 more rows
…
Middel of sixth epidemiological period

Asturias

data_asturias <- covid_data %>% 
      filter(provincia == "Asturias") %>% 
      filter(fecha > as.Date("2020-06-14", format = "%Y-%m-%d")) %>% 
      select(provincia, fecha, num_casos, tmed, mob_flujo) %>% 
      drop_na() %>% 
      as_tsibble(key = provincia, index = fecha)
data_asturias

# A tsibble: 563 x 5 [1D]
# Key:       provincia [1]
   provincia fecha      num_casos  tmed mob_flujo
   <chr>     <date>         <dbl> <dbl>     <dbl>
 1 Asturias  2020-06-15         0  16        19.4
 2 Asturias  2020-06-16         1  15.6      19.5
 3 Asturias  2020-06-17         0  15.6      19.7
 4 Asturias  2020-06-18         0  15.1      20.5
 5 Asturias  2020-06-19         0  14.8      21.0
 6 Asturias  2020-06-20         0  16.8      19.8
 7 Asturias  2020-06-21         0  18.2      20.2
 8 Asturias  2020-06-22         0  18.2      20.6
 9 Asturias  2020-06-23         0  20        21.1
10 Asturias  2020-06-24         0  18.2      21.5
# … with 553 more rows
…
Barcelona

data_Barcelona <- covid_data %>% 
      filter(provincia == "Barcelona") %>% 
      filter(fecha > as.Date("2020-06-14", format = "%Y-%m-%d")) %>% 
      select(provincia, fecha, num_casos, tmed, mob_flujo) %>% 
      drop_na() %>% 
      as_tsibble(key = provincia, index = fecha)
data_Barcelona

# A tsibble: 563 x 5 [1D]
# Key:       provincia [1]
   provincia fecha      num_casos  tmed mob_flujo
   <chr>     <date>         <dbl> <dbl>     <dbl>
 1 Barcelona 2020-06-15        62  21.2      22.0
 2 Barcelona 2020-06-16        66  20.8      22.6
 3 Barcelona 2020-06-17        70  20.3      23.2
 4 Barcelona 2020-06-18        68  18.8      23.2
 5 Barcelona 2020-06-19        65  20.4      23.9
 6 Barcelona 2020-06-20        53  21.8      21.5
 7 Barcelona 2020-06-21        38  22.8      20.5
 8 Barcelona 2020-06-22        69  23.8      19.5
 9 Barcelona 2020-06-23        95  23.4      18.5
10 Barcelona 2020-06-24        44  23.6      17.5
# … with 553 more rows
…
Madrid

data_Madrid <- covid_data %>% 
      filter(provincia == "Madrid") %>% 
      filter(fecha > as.Date("2020-06-14", format = "%Y-%m-%d")) %>% 
      select(provincia, fecha, num_casos, tmed, mob_flujo) %>% 
      drop_na() %>% 
      as_tsibble(key = provincia, index = fecha)
data_Madrid

# A tsibble: 563 x 5 [1D]
# Key:       provincia [1]
   provincia fecha      num_casos  tmed mob_flujo
   <chr>     <date>         <dbl> <dbl>     <dbl>
 1 Madrid    2020-06-15       153  20.7      20.6
 2 Madrid    2020-06-16        91  21        21.6
 3 Madrid    2020-06-17        93  20.2      21.8
 4 Madrid    2020-06-18        85  21.9      22.1
 5 Madrid    2020-06-19        78  22.6      22.0
 6 Madrid    2020-06-20        67  23.4      18.8
 7 Madrid    2020-06-21        42  25        19.9
 8 Madrid    2020-06-22        60  27.3      21.0
 9 Madrid    2020-06-23        68  28.4      22.1
10 Madrid    2020-06-24        49  28        23.1
# … with 553 more rows
…
Malaga

data_Malaga <- covid_data %>% 
      filter(provincia == "Málaga") %>% 
      filter(fecha > as.Date("2020-06-14", format = "%Y-%m-%d")) %>% 
      select(provincia, fecha, num_casos, tmed, mob_flujo) %>% 
      drop_na() %>% 
      as_tsibble(key = provincia, index = fecha)
data_Malaga

# A tsibble: 563 x 5 [1D]
# Key:       provincia [1]
   provincia fecha      num_casos  tmed mob_flujo
   <chr>     <date>         <dbl> <dbl>     <dbl>
 1 Málaga    2020-06-15         1  27.2      18.9
 2 Málaga    2020-06-16         1  27.8      19.8
 3 Málaga    2020-06-17         2  26.9      19.9
 4 Málaga    2020-06-18         2  21.6      20.0
 5 Málaga    2020-06-19         1  24.7      20.1
 6 Málaga    2020-06-20         4  22.6      18.1
 7 Málaga    2020-06-21         4  22.7      18.8
 8 Málaga    2020-06-22         6  25        19.5
 9 Málaga    2020-06-23         8  25.6      20.2
10 Málaga    2020-06-24        65  24.5      21.0
# … with 553 more rows
…
Sevilla

data_Sevilla <- covid_data %>% 
      filter(provincia == "Sevilla") %>% 
      filter(fecha > as.Date("2020-06-14", format = "%Y-%m-%d")) %>% 
      select(provincia, fecha, num_casos, tmed, mob_flujo) %>% 
      drop_na() %>% 
      as_tsibble(key = provincia, index = fecha)
data_Sevilla

# A tsibble: 563 x 5 [1D]
# Key:       provincia [1]
   provincia fecha      num_casos  tmed mob_flujo
   <chr>     <date>         <dbl> <dbl>     <dbl>
 1 Sevilla   2020-06-15         2  23.1      19.9
 2 Sevilla   2020-06-16         1  24.0      20.8
 3 Sevilla   2020-06-17         0  24.9      21.1
 4 Sevilla   2020-06-18         0  25.8      21.3
 5 Sevilla   2020-06-19         0  26.6      21.2
 6 Sevilla   2020-06-20         0  27.5      18.0
 7 Sevilla   2020-06-21         0  28.4      18.9
 8 Sevilla   2020-06-22         1  29.3      19.8
 9 Sevilla   2020-06-23         0  30.2      20.7
10 Sevilla   2020-06-24         1  29.4      21.6
# … with 553 more rows
…
