PEC3 - COVID-19 Outbreak prediction - Multivariate (Google mobility + temp) prediction
…
In the second case scenario, all the available data (limited by mobility information 29 dec 2021)

Before sixth epidemiological period

Asturias

data_asturias <- covid_data %>% 
      filter(provincia == "Asturias") %>% 
      filter(fecha > as.Date("2020-06-14", format = "%Y-%m-%d")) %>% 
      select(provincia, fecha, num_casos, tmed, mob_grocery_pharmacy, mob_parks, mob_residential, mob_retail_recreation, mob_transit_stations, mob_workplaces) %>% 
      drop_na() %>% 
      as_tsibble(key = provincia, index = fecha)
data_asturias

# A tsibble: 653 x 10 [1D]
# Key:       provincia [1]
   provincia fecha      num_casos  tmed mob_grocery_pharmacy mob_parks
   <chr>     <date>         <dbl> <dbl>                <dbl>     <dbl>
 1 Asturias  2020-06-15         0  16                   -6          39
 2 Asturias  2020-06-16         1  15.6                 -6           7
 3 Asturias  2020-06-17         0  15.6                 -7          20
 4 Asturias  2020-06-18         0  15.1                 -4          68
 5 Asturias  2020-06-19         0  14.8                 -4          52
 6 Asturias  2020-06-20         0  16.8                -10          71
 7 Asturias  2020-06-21         0  18.2                 -5.5        46
 8 Asturias  2020-06-22         0  18.2                 -1          99
 9 Asturias  2020-06-23         0  20                   -2         129
10 Asturias  2020-06-24         0  18.2                 -9          63
# … with 643 more rows, and 4 more variables: mob_residential <dbl>,
#   mob_retail_recreation <dbl>, mob_transit_stations <dbl>,
#   mob_workplaces <dbl>
…
Barcelona

data_Barcelona <- covid_data %>% 
      filter(provincia == "Barcelona") %>% 
      filter(fecha > as.Date("2020-06-14", format = "%Y-%m-%d")) %>% 
      select(provincia, fecha, num_casos, tmed, mob_grocery_pharmacy, mob_parks, mob_residential, mob_retail_recreation, mob_transit_stations, mob_workplaces) %>% 
      drop_na() %>% 
      as_tsibble(key = provincia, index = fecha)
data_Barcelona

# A tsibble: 653 x 10 [1D]
# Key:       provincia [1]
   provincia fecha      num_casos  tmed mob_grocery_pharmacy mob_parks
   <chr>     <date>         <dbl> <dbl>                <dbl>     <dbl>
 1 Barcelona 2020-06-15        62  21.2                   -9        17
 2 Barcelona 2020-06-16        66  20.8                  -10       -16
 3 Barcelona 2020-06-17        70  20.3                   -4        14
 4 Barcelona 2020-06-18        68  18.8                   -8        -6
 5 Barcelona 2020-06-19        65  20.4                   -5        10
 6 Barcelona 2020-06-20        53  21.8                  -12        15
 7 Barcelona 2020-06-21        38  22.8                  -18        18
 8 Barcelona 2020-06-22        69  23.8                    5        24
 9 Barcelona 2020-06-23        95  23.4                   19        28
10 Barcelona 2020-06-24        44  23.6                  -71        28
# … with 643 more rows, and 4 more variables: mob_residential <dbl>,
#   mob_retail_recreation <dbl>, mob_transit_stations <dbl>,
#   mob_workplaces <dbl>
…
Madrid

data_Madrid <- covid_data %>% 
      filter(provincia == "Madrid") %>% 
      filter(fecha > as.Date("2020-06-14", format = "%Y-%m-%d")) %>% 
      select(provincia, fecha, num_casos, tmed, mob_grocery_pharmacy, mob_parks, mob_residential, mob_retail_recreation, mob_transit_stations, mob_workplaces) %>% 
      drop_na() %>% 
      as_tsibble(key = provincia, index = fecha)
data_Madrid

# A tsibble: 653 x 10 [1D]
# Key:       provincia [1]
   provincia fecha      num_casos  tmed mob_grocery_pharmacy mob_parks
   <chr>     <date>         <dbl> <dbl>                <dbl>     <dbl>
 1 Madrid    2020-06-15       153  20.7                   -8        34
 2 Madrid    2020-06-16        91  21                     -8        21
 3 Madrid    2020-06-17        93  20.2                   -5        34
 4 Madrid    2020-06-18        85  21.9                   -7        30
 5 Madrid    2020-06-19        78  22.6                   -9        22
 6 Madrid    2020-06-20        67  23.4                  -12        25
 7 Madrid    2020-06-21        42  25                    -13        14
 8 Madrid    2020-06-22        60  27.3                   -8        29
 9 Madrid    2020-06-23        68  28.4                   -9        23
10 Madrid    2020-06-24        49  28                     -7        22
# … with 643 more rows, and 4 more variables: mob_residential <dbl>,
#   mob_retail_recreation <dbl>, mob_transit_stations <dbl>,
#   mob_workplaces <dbl>
…
Malaga

data_Malaga <- covid_data %>% 
      filter(provincia == "Málaga") %>% 
      filter(fecha > as.Date("2020-06-14", format = "%Y-%m-%d")) %>% 
      select(provincia, fecha, num_casos, tmed, mob_grocery_pharmacy, mob_parks, mob_residential, mob_retail_recreation, mob_transit_stations, mob_workplaces) %>% 
      drop_na() %>% 
      as_tsibble(key = provincia, index = fecha)
data_Malaga

# A tsibble: 653 x 10 [1D]
# Key:       provincia [1]
   provincia fecha      num_casos  tmed mob_grocery_pharmacy mob_parks
   <chr>     <date>         <dbl> <dbl>                <dbl>     <dbl>
 1 Málaga    2020-06-15         1  27.2                  -16        -9
 2 Málaga    2020-06-16         1  27.8                  -13        -4
 3 Málaga    2020-06-17         2  26.9                  -13         1
 4 Málaga    2020-06-18         2  21.6                  -12         3
 5 Málaga    2020-06-19         1  24.7                  -12         2
 6 Málaga    2020-06-20         4  22.6                  -14         8
 7 Málaga    2020-06-21         4  22.7                  -16        -3
 8 Málaga    2020-06-22         6  25                    -13         1
 9 Málaga    2020-06-23         8  25.6                  -10        18
10 Málaga    2020-06-24        65  24.5                  -13        12
# … with 643 more rows, and 4 more variables: mob_residential <dbl>,
#   mob_retail_recreation <dbl>, mob_transit_stations <dbl>,
#   mob_workplaces <dbl>
…
Sevilla

data_Sevilla <- covid_data %>% 
      filter(provincia == "Sevilla") %>% 
      filter(fecha > as.Date("2020-06-14", format = "%Y-%m-%d")) %>% 
      select(provincia, fecha, num_casos, tmed, mob_grocery_pharmacy, mob_parks, mob_residential, mob_retail_recreation, mob_transit_stations, mob_workplaces) %>% 
      drop_na() %>% 
      as_tsibble(key = provincia, index = fecha)
data_Sevilla

# A tsibble: 653 x 10 [1D]
# Key:       provincia [1]
   provincia fecha      num_casos  tmed mob_grocery_pharmacy mob_parks
   <chr>     <date>         <dbl> <dbl>                <dbl>     <dbl>
 1 Sevilla   2020-06-15         2  23.1                  -14       -13
 2 Sevilla   2020-06-16         1  24.0                  -10        -4
 3 Sevilla   2020-06-17         0  24.9                  -10        -7
 4 Sevilla   2020-06-18         0  25.8                  -12       -13
 5 Sevilla   2020-06-19         0  26.6                  -13       -20
 6 Sevilla   2020-06-20         0  27.5                  -20       -34
 7 Sevilla   2020-06-21         0  28.4                  -27       -47
 8 Sevilla   2020-06-22         1  29.3                  -17       -19
 9 Sevilla   2020-06-23         0  30.2                  -12       -13
10 Sevilla   2020-06-24         1  29.4                  -12       -12
# … with 643 more rows, and 4 more variables: mob_residential <dbl>,
#   mob_retail_recreation <dbl>, mob_transit_stations <dbl>,
#   mob_workplaces <dbl>
…
Middel of sixth epidemiological period

Asturias

data_asturias <- covid_data %>% 
      filter(provincia == "Asturias") %>% 
      filter(fecha > as.Date("2020-06-14", format = "%Y-%m-%d")) %>% 
      select(provincia, fecha, num_casos, tmed, mob_grocery_pharmacy, mob_parks, mob_residential, mob_retail_recreation, mob_transit_stations, mob_workplaces) %>% 
      drop_na() %>% 
      as_tsibble(key = provincia, index = fecha)
data_asturias

# A tsibble: 653 x 10 [1D]
# Key:       provincia [1]
   provincia fecha      num_casos  tmed mob_grocery_pharmacy mob_parks
   <chr>     <date>         <dbl> <dbl>                <dbl>     <dbl>
 1 Asturias  2020-06-15         0  16                   -6          39
 2 Asturias  2020-06-16         1  15.6                 -6           7
 3 Asturias  2020-06-17         0  15.6                 -7          20
 4 Asturias  2020-06-18         0  15.1                 -4          68
 5 Asturias  2020-06-19         0  14.8                 -4          52
 6 Asturias  2020-06-20         0  16.8                -10          71
 7 Asturias  2020-06-21         0  18.2                 -5.5        46
 8 Asturias  2020-06-22         0  18.2                 -1          99
 9 Asturias  2020-06-23         0  20                   -2         129
10 Asturias  2020-06-24         0  18.2                 -9          63
# … with 643 more rows, and 4 more variables: mob_residential <dbl>,
#   mob_retail_recreation <dbl>, mob_transit_stations <dbl>,
#   mob_workplaces <dbl>
…
Barcelona

data_Barcelona <- covid_data %>% 
      filter(provincia == "Barcelona") %>% 
      filter(fecha > as.Date("2020-06-14", format = "%Y-%m-%d")) %>% 
      select(provincia, fecha, num_casos, tmed, mob_grocery_pharmacy, mob_parks, mob_residential, mob_retail_recreation, mob_transit_stations, mob_workplaces) %>% 
      drop_na() %>% 
      as_tsibble(key = provincia, index = fecha)
data_Barcelona

# A tsibble: 653 x 10 [1D]
# Key:       provincia [1]
   provincia fecha      num_casos  tmed mob_grocery_pharmacy mob_parks
   <chr>     <date>         <dbl> <dbl>                <dbl>     <dbl>
 1 Barcelona 2020-06-15        62  21.2                   -9        17
 2 Barcelona 2020-06-16        66  20.8                  -10       -16
 3 Barcelona 2020-06-17        70  20.3                   -4        14
 4 Barcelona 2020-06-18        68  18.8                   -8        -6
 5 Barcelona 2020-06-19        65  20.4                   -5        10
 6 Barcelona 2020-06-20        53  21.8                  -12        15
 7 Barcelona 2020-06-21        38  22.8                  -18        18
 8 Barcelona 2020-06-22        69  23.8                    5        24
 9 Barcelona 2020-06-23        95  23.4                   19        28
10 Barcelona 2020-06-24        44  23.6                  -71        28
# … with 643 more rows, and 4 more variables: mob_residential <dbl>,
#   mob_retail_recreation <dbl>, mob_transit_stations <dbl>,
#   mob_workplaces <dbl>
…
Madrid

data_Madrid <- covid_data %>% 
      filter(provincia == "Madrid") %>% 
      filter(fecha > as.Date("2020-06-14", format = "%Y-%m-%d")) %>% 
      select(provincia, fecha, num_casos, tmed, mob_grocery_pharmacy, mob_parks, mob_residential, mob_retail_recreation, mob_transit_stations, mob_workplaces) %>% 
      drop_na() %>% 
      as_tsibble(key = provincia, index = fecha)
data_Madrid

# A tsibble: 653 x 10 [1D]
# Key:       provincia [1]
   provincia fecha      num_casos  tmed mob_grocery_pharmacy mob_parks
   <chr>     <date>         <dbl> <dbl>                <dbl>     <dbl>
 1 Madrid    2020-06-15       153  20.7                   -8        34
 2 Madrid    2020-06-16        91  21                     -8        21
 3 Madrid    2020-06-17        93  20.2                   -5        34
 4 Madrid    2020-06-18        85  21.9                   -7        30
 5 Madrid    2020-06-19        78  22.6                   -9        22
 6 Madrid    2020-06-20        67  23.4                  -12        25
 7 Madrid    2020-06-21        42  25                    -13        14
 8 Madrid    2020-06-22        60  27.3                   -8        29
 9 Madrid    2020-06-23        68  28.4                   -9        23
10 Madrid    2020-06-24        49  28                     -7        22
# … with 643 more rows, and 4 more variables: mob_residential <dbl>,
#   mob_retail_recreation <dbl>, mob_transit_stations <dbl>,
#   mob_workplaces <dbl>
…
Malaga

data_Malaga <- covid_data %>% 
      filter(provincia == "Málaga") %>% 
      filter(fecha > as.Date("2020-06-14", format = "%Y-%m-%d")) %>% 
      select(provincia, fecha, num_casos, tmed, mob_grocery_pharmacy, mob_parks, mob_residential, mob_retail_recreation, mob_transit_stations, mob_workplaces) %>% 
      drop_na() %>% 
      as_tsibble(key = provincia, index = fecha)
data_Malaga

# A tsibble: 653 x 10 [1D]
# Key:       provincia [1]
   provincia fecha      num_casos  tmed mob_grocery_pharmacy mob_parks
   <chr>     <date>         <dbl> <dbl>                <dbl>     <dbl>
 1 Málaga    2020-06-15         1  27.2                  -16        -9
 2 Málaga    2020-06-16         1  27.8                  -13        -4
 3 Málaga    2020-06-17         2  26.9                  -13         1
 4 Málaga    2020-06-18         2  21.6                  -12         3
 5 Málaga    2020-06-19         1  24.7                  -12         2
 6 Málaga    2020-06-20         4  22.6                  -14         8
 7 Málaga    2020-06-21         4  22.7                  -16        -3
 8 Málaga    2020-06-22         6  25                    -13         1
 9 Málaga    2020-06-23         8  25.6                  -10        18
10 Málaga    2020-06-24        65  24.5                  -13        12
# … with 643 more rows, and 4 more variables: mob_residential <dbl>,
#   mob_retail_recreation <dbl>, mob_transit_stations <dbl>,
#   mob_workplaces <dbl>
…
Sevilla

data_Sevilla <- covid_data %>% 
      filter(provincia == "Sevilla") %>% 
      filter(fecha > as.Date("2020-06-14", format = "%Y-%m-%d")) %>% 
      select(provincia, fecha, num_casos, tmed, mob_grocery_pharmacy, mob_parks, mob_residential, mob_retail_recreation, mob_transit_stations, mob_workplaces) %>% 
      drop_na() %>% 
      as_tsibble(key = provincia, index = fecha)
data_Sevilla

# A tsibble: 653 x 10 [1D]
# Key:       provincia [1]
   provincia fecha      num_casos  tmed mob_grocery_pharmacy mob_parks
   <chr>     <date>         <dbl> <dbl>                <dbl>     <dbl>
 1 Sevilla   2020-06-15         2  23.1                  -14       -13
 2 Sevilla   2020-06-16         1  24.0                  -10        -4
 3 Sevilla   2020-06-17         0  24.9                  -10        -7
 4 Sevilla   2020-06-18         0  25.8                  -12       -13
 5 Sevilla   2020-06-19         0  26.6                  -13       -20
 6 Sevilla   2020-06-20         0  27.5                  -20       -34
 7 Sevilla   2020-06-21         0  28.4                  -27       -47
 8 Sevilla   2020-06-22         1  29.3                  -17       -19
 9 Sevilla   2020-06-23         0  30.2                  -12       -13
10 Sevilla   2020-06-24         1  29.4                  -12       -12
# … with 643 more rows, and 4 more variables: mob_residential <dbl>,
#   mob_retail_recreation <dbl>, mob_transit_stations <dbl>,
#   mob_workplaces <dbl>
…
