PEC3 - COVID-19 Outbreak prediction - 7 Univariate data
…
covid_data <- readRDS(here("data", "clean", "final_covid_data.rds"))

8 Asturias

data_asturias <- covid_data %>% 
      filter(provincia == "Asturias") %>% 
      select(provincia, fecha, num_casos, num_hosp, tmed,mob_grocery_pharmacy, mob_parks,
             mob_residential, mob_retail_recreation, mob_transit_stations, mob_workplaces, mob_flujo) %>% 
      drop_na() %>% 
      as_tsibble(key = provincia, index = fecha)
data_asturias

# A tsibble: 654 x 12 [1D]
# Key:       provincia [1]
   provincia fecha      num_casos num_hosp  tmed mob_grocery_pharmacy mob_parks
   <chr>     <date>         <dbl>    <dbl> <dbl>                <dbl>     <dbl>
 1 Asturias  2020-03-16       105       11   8.6                  -30       -70
 2 Asturias  2020-03-17        80       20   8.8                  -39       -71
 3 Asturias  2020-03-18        91       24  11.8                  -39       -67
 4 Asturias  2020-03-19       101       29  10.9                  -42       -70
 5 Asturias  2020-03-20        83       29  11.5                  -40       -75
 6 Asturias  2020-03-21        68       33  11                    -49       -84
 7 Asturias  2020-03-22        76       30  12.6                  -75       -87
 8 Asturias  2020-03-23        70       36  11.8                  -46       -73
 9 Asturias  2020-03-24        58       36  12.4                  -49       -72
10 Asturias  2020-03-25        57       43  11                    -50       -69
# … with 644 more rows, and 5 more variables: mob_residential <dbl>,
#   mob_retail_recreation <dbl>, mob_transit_stations <dbl>,
#   mob_workplaces <dbl>, mob_flujo <dbl>
…
