PEC3 - COVID-19 Outbreak prediction - Task 4: Visual demographic analysis
…
hosp_data <- readRDS(here("data", "clean", "final_hosp_data.rds"))
hosp_data

# A tibble: 122,850 × 8
   provincia sexo  grupo_edad fecha      num_casos num_hosp num_uci num_def
   <chr>     <chr> <chr>      <date>         <dbl>    <dbl>   <dbl>   <dbl>
 1 Barcelona H     0-9        2020-01-01         0        0       0       0
 2 Barcelona H     10-19      2020-01-01         0        0       0       0
 3 Barcelona H     20-29      2020-01-01         0        0       0       0
 4 Barcelona H     30-39      2020-01-01         0        0       0       0
 5 Barcelona H     40-49      2020-01-01         0        0       0       0
 6 Barcelona H     50-59      2020-01-01         0        0       0       0
 7 Barcelona H     60-69      2020-01-01         0        0       0       0
 8 Barcelona H     70-79      2020-01-01         0        0       0       0
 9 Barcelona H     80+        2020-01-01         0        0       0       0
10 Barcelona H     NC         2020-01-01         0        0       0       0
# … with 122,840 more rows
…
data_asturias <- hosp_data %>% 
      filter(provincia == "Asturias") %>% 
      select(-provincia) %>% 
      as_tsibble(index = fecha, key = c(sexo, grupo_edad)) %>% 
      mutate(ola = case_when(
            fecha < as.Date("2020-06-21", format = "%Y-%m-%d") ~ "1_ola",
            fecha < as.Date("2020-12-06", format = "%Y-%m-%d") ~ "2_ola",
            fecha < as.Date("2021-03-14", format = "%Y-%m-%d") ~ "3_ola",
            fecha < as.Date("2021-06-19", format = "%Y-%m-%d") ~ "4_ola",
            fecha < as.Date("2021-10-13", format = "%Y-%m-%d") ~ "5_ola",
            TRUE ~ "6_ola",
      ))
data_asturias

# A tsibble: 24,570 x 8 [1D]
# Key:       sexo, grupo_edad [30]
   sexo  grupo_edad fecha      num_casos num_hosp num_uci num_def ola  
   <chr> <chr>      <date>         <dbl>    <dbl>   <dbl>   <dbl> <chr>
 1 H     0-9        2020-01-01         0        0       0       0 1_ola
 2 H     0-9        2020-01-02         0        0       0       0 1_ola
 3 H     0-9        2020-01-03         0        0       0       0 1_ola
 4 H     0-9        2020-01-04         0        0       0       0 1_ola
 5 H     0-9        2020-01-05         0        0       0       0 1_ola
 6 H     0-9        2020-01-06         0        0       0       0 1_ola
 7 H     0-9        2020-01-07         0        0       0       0 1_ola
 8 H     0-9        2020-01-08         0        0       0       0 1_ola
 9 H     0-9        2020-01-09         0        0       0       0 1_ola
10 H     0-9        2020-01-10         0        0       0       0 1_ola
# … with 24,560 more rows
…
data_Barcelona <- hosp_data %>% 
      filter(provincia == "Barcelona") %>% 
      select(-provincia) %>% 
      as_tsibble(index = fecha, key = c(sexo, grupo_edad)) %>% 
      mutate(ola = case_when(
            fecha < as.Date("2020-06-21", format = "%Y-%m-%d") ~ "1_ola",
            fecha < as.Date("2020-12-06", format = "%Y-%m-%d") ~ "2_ola",
            fecha < as.Date("2021-03-14", format = "%Y-%m-%d") ~ "3_ola",
            fecha < as.Date("2021-06-19", format = "%Y-%m-%d") ~ "4_ola",
            fecha < as.Date("2021-10-13", format = "%Y-%m-%d") ~ "5_ola",
            TRUE ~ "6_ola",
      ))
data_Barcelona

# A tsibble: 24,570 x 8 [1D]
# Key:       sexo, grupo_edad [30]
   sexo  grupo_edad fecha      num_casos num_hosp num_uci num_def ola  
   <chr> <chr>      <date>         <dbl>    <dbl>   <dbl>   <dbl> <chr>
 1 H     0-9        2020-01-01         0        0       0       0 1_ola
 2 H     0-9        2020-01-02         0        0       0       0 1_ola
 3 H     0-9        2020-01-03         0        0       0       0 1_ola
 4 H     0-9        2020-01-04         0        0       0       0 1_ola
 5 H     0-9        2020-01-05         0        0       0       0 1_ola
 6 H     0-9        2020-01-06         0        0       0       0 1_ola
 7 H     0-9        2020-01-07         0        0       0       0 1_ola
 8 H     0-9        2020-01-08         0        0       0       0 1_ola
 9 H     0-9        2020-01-09         0        0       0       0 1_ola
10 H     0-9        2020-01-10         1        0       0       0 1_ola
# … with 24,560 more rows
…
data_Madrid <- hosp_data %>% 
      filter(provincia == "Madrid") %>% 
      select(-provincia) %>% 
      as_tsibble(index = fecha, key = c(sexo, grupo_edad)) %>% 
      mutate(ola = case_when(
            fecha < as.Date("2020-06-21", format = "%Y-%m-%d") ~ "1_ola",
            fecha < as.Date("2020-12-06", format = "%Y-%m-%d") ~ "2_ola",
            fecha < as.Date("2021-03-14", format = "%Y-%m-%d") ~ "3_ola",
            fecha < as.Date("2021-06-19", format = "%Y-%m-%d") ~ "4_ola",
            fecha < as.Date("2021-10-13", format = "%Y-%m-%d") ~ "5_ola",
            TRUE ~ "6_ola",
      ))
data_Madrid

# A tsibble: 24,570 x 8 [1D]
# Key:       sexo, grupo_edad [30]
   sexo  grupo_edad fecha      num_casos num_hosp num_uci num_def ola  
   <chr> <chr>      <date>         <dbl>    <dbl>   <dbl>   <dbl> <chr>
 1 H     0-9        2020-01-01         0        0       0       0 1_ola
 2 H     0-9        2020-01-02         0        1       1       0 1_ola
 3 H     0-9        2020-01-03         0        0       0       0 1_ola
 4 H     0-9        2020-01-04         0        0       0       0 1_ola
 5 H     0-9        2020-01-05         0        0       0       0 1_ola
 6 H     0-9        2020-01-06         0        0       0       0 1_ola
 7 H     0-9        2020-01-07         0        0       0       0 1_ola
 8 H     0-9        2020-01-08         0        0       0       0 1_ola
 9 H     0-9        2020-01-09         0        0       0       0 1_ola
10 H     0-9        2020-01-10         0        0       0       0 1_ola
# … with 24,560 more rows
…
data_Malaga <- hosp_data %>% 
      filter(provincia == "Málaga") %>% 
      select(-provincia) %>% 
      as_tsibble(index = fecha, key = c(sexo, grupo_edad)) %>% 
      mutate(ola = case_when(
            fecha < as.Date("2020-06-21", format = "%Y-%m-%d") ~ "1_ola",
            fecha < as.Date("2020-12-06", format = "%Y-%m-%d") ~ "2_ola",
            fecha < as.Date("2021-03-14", format = "%Y-%m-%d") ~ "3_ola",
            fecha < as.Date("2021-06-19", format = "%Y-%m-%d") ~ "4_ola",
            fecha < as.Date("2021-10-13", format = "%Y-%m-%d") ~ "5_ola",
            TRUE ~ "6_ola",
      ))
data_Malaga

# A tsibble: 24,570 x 8 [1D]
# Key:       sexo, grupo_edad [30]
   sexo  grupo_edad fecha      num_casos num_hosp num_uci num_def ola  
   <chr> <chr>      <date>         <dbl>    <dbl>   <dbl>   <dbl> <chr>
 1 H     0-9        2020-01-01         0        0       0       0 1_ola
 2 H     0-9        2020-01-02         0        0       0       0 1_ola
 3 H     0-9        2020-01-03         0        0       0       0 1_ola
 4 H     0-9        2020-01-04         0        0       0       0 1_ola
 5 H     0-9        2020-01-05         0        0       0       0 1_ola
 6 H     0-9        2020-01-06         0        0       0       0 1_ola
 7 H     0-9        2020-01-07         0        0       0       0 1_ola
 8 H     0-9        2020-01-08         0        0       0       0 1_ola
 9 H     0-9        2020-01-09         0        0       0       0 1_ola
10 H     0-9        2020-01-10         0        0       0       0 1_ola
# … with 24,560 more rows
…
data_Sevilla <- hosp_data %>% 
      filter(provincia == "Sevilla") %>% 
      select(-provincia) %>% 
      as_tsibble(index = fecha, key = c(sexo, grupo_edad)) %>% 
      mutate(ola = case_when(
            fecha < as.Date("2020-06-21", format = "%Y-%m-%d") ~ "1_ola",
            fecha < as.Date("2020-12-06", format = "%Y-%m-%d") ~ "2_ola",
            fecha < as.Date("2021-03-14", format = "%Y-%m-%d") ~ "3_ola",
            fecha < as.Date("2021-06-19", format = "%Y-%m-%d") ~ "4_ola",
            fecha < as.Date("2021-10-13", format = "%Y-%m-%d") ~ "5_ola",
            TRUE ~ "6_ola",
      ))
data_Sevilla

# A tsibble: 24,570 x 8 [1D]
# Key:       sexo, grupo_edad [30]
   sexo  grupo_edad fecha      num_casos num_hosp num_uci num_def ola  
   <chr> <chr>      <date>         <dbl>    <dbl>   <dbl>   <dbl> <chr>
 1 H     0-9        2020-01-01         0        0       0       0 1_ola
 2 H     0-9        2020-01-02         0        0       0       0 1_ola
 3 H     0-9        2020-01-03         0        0       0       0 1_ola
 4 H     0-9        2020-01-04         0        0       0       0 1_ola
 5 H     0-9        2020-01-05         0        0       0       0 1_ola
 6 H     0-9        2020-01-06         0        0       0       0 1_ola
 7 H     0-9        2020-01-07         0        0       0       0 1_ola
 8 H     0-9        2020-01-08         0        0       0       0 1_ola
 9 H     0-9        2020-01-09         0        0       0       0 1_ola
10 H     0-9        2020-01-10         0        0       0       0 1_ola
# … with 24,560 more rows
…
