PEC3 - COVID-19 Outbreak prediction - Task 3: Visual analysis
…
First, we need to load packages and clean data generated during previous tasks:

pacman::p_load(
      here,      # file locator
      tidyverse, # data management and ggplot2 graphics
      skimr,     # get overview of data
      janitor,   # produce and adorn tabulations and cross-tabulations
      lubridate  # manage dates
)

covid_data <- readRDS(here("data", "clean", "final_covid_data.rds"))
covid_data

# A tibble: 4,095 × 26
   provincia fecha      num_casos num_casos_prueba_pcr num_casos_prueba_test_ac
   <chr>     <date>         <dbl>                <dbl>                    <dbl>
 1 Barcelona 2020-01-01         0                    0                        0
 2 Madrid    2020-01-01         1                    1                        0
 3 Málaga    2020-01-01         0                    0                        0
 4 Asturias  2020-01-01         0                    0                        0
 5 Sevilla   2020-01-01         0                    0                        0
 6 Barcelona 2020-01-02         0                    0                        0
 7 Madrid    2020-01-02         0                    0                        0
 8 Málaga    2020-01-02         0                    0                        0
 9 Asturias  2020-01-02         0                    0                        0
10 Sevilla   2020-01-02         0                    0                        0
# … with 4,085 more rows, and 21 more variables: num_casos_prueba_ag <dbl>,
#   num_casos_prueba_elisa <dbl>, num_casos_prueba_desconocida <dbl>,
#   num_hosp <dbl>, num_uci <dbl>, num_def <dbl>, tmed <dbl>, prec <dbl>,
#   tmin <dbl>, tmax <dbl>, wd <dbl>, ws <dbl>, ws_max <dbl>, sol <dbl>,
#   mob_grocery_pharmacy <dbl>, mob_parks <dbl>, mob_residential <dbl>,
#   mob_retail_recreation <dbl>, mob_transit_stations <dbl>,
#   mob_workplaces <dbl>, mob_flujo <dbl>
…
